<?xml version="1.0" encoding="UTF-8" standalone="no"?>
<!-- Created with Inkscape (http://www.inkscape.org/) -->

<svg
   xmlns:dc="http://purl.org/dc/elements/1.1/"
   xmlns:cc="http://creativecommons.org/ns#"
   xmlns:rdf="http://www.w3.org/1999/02/22-rdf-syntax-ns#"
   xmlns:svg="http://www.w3.org/2000/svg"
   xmlns="http://www.w3.org/2000/svg"
   xmlns:sodipodi="http://sodipodi.sourceforge.net/DTD/sodipodi-0.dtd"
   xmlns:inkscape="http://www.inkscape.org/namespaces/inkscape"
   width="74.722786"
   height="99.91658"
   viewBox="0 0 19.770404 26.436263"
   version="1.1"
   id="svg8492"
   inkscape:version="0.92.4 (f8dce91, 2019-08-02)"
   sodipodi:docname="element_graphique_fin.svg">
  <defs
     id="defs8486">
    <clipPath
       id="clipPath7139"
       clipPathUnits="userSpaceOnUse">
      <path
         inkscape:connector-curvature="0"
         id="path7137"
         d="M 0,0 H 841.89 V 595.276 H 0 Z" />
    </clipPath>
    <clipPath
       id="clipPath6783"
       clipPathUnits="userSpaceOnUse">
      <path
         inkscape:connector-curvature="0"
         id="path6781"
         d="M 0,0 H 841.89 V 595.276 H 0 Z" />
    </clipPath>
  </defs>
  <sodipodi:namedview
     id="base"
     pagecolor="#ffffff"
     bordercolor="#666666"
     borderopacity="1.0"
     inkscape:pageopacity="0.0"
     inkscape:pageshadow="2"
     inkscape:zoom="0.35"
     inkscape:cx="567.32696"
     inkscape:cy="-29.02245"
     inkscape:document-units="mm"
     inkscape:current-layer="layer1"
     showgrid="false"
     fit-margin-top="0"
     fit-margin-left="0"
     fit-margin-right="0"
     fit-margin-bottom="0"
     inkscape:window-width="1600"
     inkscape:window-height="873"
     inkscape:window-x="0"
     inkscape:window-y="27"
     inkscape:window-maximized="1"
     units="px" />
  <metadata
     id="metadata8489">
    <rdf:RDF>
      <cc:Work
         rdf:about="">
        <dc:format>image/svg+xml</dc:format>
        <dc:type
           rdf:resource="http://purl.org/dc/dcmitype/StillImage" />
        <dc:title></dc:title>
      </cc:Work>
    </rdf:RDF>
  </metadata>
  <g
     inkscape:label="Calque 1"
     inkscape:groupmode="layer"
     id="layer1"
     transform="translate(-184.40366,-144.95631)">
    <g
       id="g7608"
       transform="matrix(1.833592,0,0,1.833592,48.110803,-292.78041)">
      <g
         transform="matrix(0.35277777,0,0,-0.35277777,-3.1689466,370.2821)"
         id="g6779"
         clip-path="url(#clipPath6783)">
        <g
           id="g6785"
           transform="translate(227.5451,353.2453)">
          <path
             d="m 0,0 c 0,0.008 0.001,0.013 0.001,0.021 l 0.002,0.004 z m -7.482,1.268 c 0.002,0.005 0.003,0.009 0.003,0.012 0.003,0.02 0.006,0.04 0.009,0.059 z m 23.888,-3.427 c -0.124,-1.542 -0.559,-3.014 -1.064,-4.327 -0.341,-0.944 -1.01,-2.17 -1.885,-3.22 -0.867,-1.058 -1.946,-1.901 -2.766,-2.343 -1.334,-0.764 -2.289,-1.466 -3.543,-2.155 l -0.362,-0.145 c -0.209,-0.158 -0.208,-0.176 -0.52,-0.357 0.156,0.118 -0.052,0.016 -0.155,-0.025 l -0.313,-0.237 c -0.154,0.013 -0.773,-0.634 -0.877,-0.583 l -0.16,-0.018 c -1.415,-0.753 -2.889,-1.642 -4.382,-2.562 -0.745,-0.461 -1.499,-0.926 -2.249,-1.39 -0.376,-0.23 -0.752,-0.459 -1.126,-0.687 -0.567,-0.338 -1.132,-0.674 -1.692,-1.008 -0.045,0.274 -0.089,0.543 -0.134,0.811 -0.114,0.874 -0.095,1.058 -0.116,1.444 -0.016,0.354 -0.038,0.71 -0.104,1.153 l -0.085,-0.023 c -0.129,0.607 0.049,0.148 -0.029,0.791 l -0.064,-0.254 -0.223,1.199 0.054,-0.189 c -0.074,0.419 -0.176,0.882 -0.231,0.869 0.037,0.079 0.092,-0.014 0.003,0.524 -0.129,-0.011 -0.272,0.775 -0.415,1.509 0.019,-0.013 -0.017,0.275 0.037,0.079 -0.432,1.573 -0.299,2.527 -0.732,4.05 l 0.019,-0.014 c -0.123,1.245 -0.34,1.719 -0.499,3.094 l -0.055,-0.064 c -0.09,0.642 -0.209,1.358 -0.379,2.061 l 0.038,-0.082 c -0.033,0.166 -0.069,0.329 -0.094,0.501 l 0.018,-0.015 c -0.052,0.206 -0.094,0.684 -0.156,1.107 l 0.016,-0.017 c 0.009,0.287 -0.019,0.619 -0.041,0.905 l 0.059,0.319 c -0.024,0.414 0.022,0.929 0.097,1.423 0.08,0.493 0.178,0.965 0.225,1.315 0.353,1.433 1.018,2.936 1.917,4.159 0.466,0.642 0.873,1.149 1.292,1.539 0.391,0.419 0.793,0.713 1.178,1.017 0.799,0.565 1.614,1.107 3.031,1.665 1.597,0.668 2.843,0.896 4.018,1.004 0.297,0.013 0.589,0.027 0.882,0.04 0.294,-0.021 0.59,-0.041 0.895,-0.062 0.306,-0.012 0.614,-0.087 0.937,-0.15 0.161,-0.035 0.326,-0.07 0.497,-0.106 0.168,-0.041 0.335,-0.106 0.51,-0.162 0,0 0.352,-0.109 0.757,-0.262 C 8.829,9.777 9.277,9.553 9.5,9.403 9.706,9.242 9.717,9.173 9.237,9.275 8.928,9.328 8.423,9.5 7.637,9.65 8.206,9.487 8.77,9.28 9.323,9.023 9.438,8.97 9.55,8.912 9.663,8.855 9.5,8.984 9.401,9.077 9.372,9.128 9.321,9.214 9.454,9.199 9.712,9.103 9.841,9.056 10.002,8.99 10.187,8.909 c 0.185,-0.08 0.396,-0.172 0.605,-0.308 0.883,-0.469 1.88,-1.328 2.6,-2.1 0.329,-0.412 0.647,-0.756 0.823,-1.04 0.184,-0.279 0.295,-0.447 0.295,-0.447 0.486,-0.743 0.854,-1.555 1.17,-2.381 0.016,0.008 0.121,-0.214 0.133,-0.31 0.546,-1.355 0.727,-2.948 0.593,-4.482 M 8.877,0.064 8.921,0.136 C 8.793,0.742 8.434,1.338 7.955,1.808 7.476,2.284 6.889,2.633 6.299,2.9 6.038,3.085 5.886,3.26 5.561,3.364 L 5.545,3.278 C 5.313,3.291 5.511,3.358 5.275,3.43 L 5.346,3.31 C 5.196,3.331 5.047,3.35 4.896,3.348 L 4.97,3.365 C 4.812,3.372 4.636,3.361 4.637,3.304 4.612,3.355 4.65,3.397 4.447,3.391 4.444,3.257 4.155,3.257 3.891,3.19 3.895,3.207 3.789,3.206 3.859,3.236 3.717,3.181 3.593,3.14 3.474,3.111 3.356,3.082 3.238,3.082 3.126,3.054 3.014,3.031 2.9,3.009 2.784,2.971 2.671,2.926 2.56,2.855 2.447,2.759 L 2.446,2.776 C 1.997,2.648 1.909,2.435 1.467,2.192 L 1.522,2.154 C 1.331,2.02 1.127,1.844 0.987,1.623 L 0.993,1.66 0.873,1.527 0.865,1.542 C 0.833,1.474 0.712,1.357 0.651,1.218 L 0.643,1.232 C 0.554,1.176 0.505,1.067 0.475,0.968 L 0.369,0.905 C 0.318,0.766 0.231,0.612 0.152,0.458 0.064,0.308 0,0.152 0.001,0.021 c -0.184,-0.472 -0.292,-1.014 -0.335,-1.524 -0.017,-0.536 0.001,-0.871 0.023,-1.204 0.022,-0.165 0.02,-0.336 0.067,-0.521 0.02,-0.094 0.042,-0.193 0.065,-0.301 0.036,-0.105 0.075,-0.217 0.118,-0.341 0.266,-0.539 0.559,-0.859 0.836,-1.137 0.29,-0.269 0.548,-0.521 0.92,-0.843 0,0 0.091,-0.085 0.208,-0.176 0.117,-0.09 0.249,-0.205 0.308,-0.3 C 2.282,-6.418 2.259,-6.492 2.059,-6.49 1.96,-6.489 1.815,-6.468 1.605,-6.418 1.542,-6.395 1.469,-6.369 1.391,-6.341 1.596,-6.475 1.807,-6.6 2.035,-6.706 2.087,-6.73 2.141,-6.747 2.194,-6.77 c -0.068,0.077 -0.103,0.137 -0.11,0.169 -0.011,0.124 0.254,0.088 0.601,0.007 0.355,-0.059 0.806,-0.15 1.179,-0.148 0.185,-0.015 0.348,-0.004 0.465,0.001 0.117,0.003 0.188,0.006 0.188,0.006 l 0.465,0.052 c 0.153,0.027 0.305,0.066 0.459,0.097 -0.003,0.008 0.07,0.063 0.105,0.062 0.465,0.218 0.963,0.413 1.446,0.68 0.475,0.269 0.937,0.618 1.179,1.077 0.104,0.148 0.19,0.347 0.304,0.543 0.084,0.215 0.204,0.426 0.273,0.657 0.182,0.447 0.274,0.905 0.396,1.219 0.099,0.546 -0.015,0.988 -0.029,1.501 l 0.033,0.148 C 9.102,-0.61 9.086,-0.61 9.065,-0.481 9.099,-0.546 9.102,-0.459 9.111,-0.415 9.09,-0.371 9.063,-0.329 9.034,-0.287 9.107,-0.216 8.791,0.015 8.877,0.064"
             style="fill:#f68712;fill-opacity:1;fill-rule:nonzero;stroke:none"
             id="path6787"
             inkscape:connector-curvature="0" />
        </g>
        <g
           id="g6789"
           transform="translate(237.9304,362.4505)">
          <path
             d="m 0,0 c -0.236,-0.04 -2.395,4.079 -2.395,4.079 l 0.838,0.098 -0.521,2.68 c 0,0 -0.162,2.851 0.335,3.032 0.497,0.182 2.49,0.559 2.49,0.559 L -0.052,6.629 0.727,2.969 -0.219,1.508 Z"
             style="fill:#40b93e;fill-opacity:1;fill-rule:nonzero;stroke:none"
             id="path6791"
             inkscape:connector-curvature="0" />
        </g>
        <g
           id="g6793"
           transform="translate(238.0252,362.4254)">
          <path
             d="m 0,0 0.063,1.49 c 0,0 2.747,3.945 2.897,3.987 0.15,0.043 3.355,1.412 3.355,1.412 L 9.422,4.868 12.224,4.252 c 0,0 -1.493,-0.388 -1.543,-0.636 C 10.631,3.367 10.189,2.14 9.945,2.037 9.7,1.935 8.834,1.184 8.834,1.184 8.834,1.184 7.906,0.378 7.682,0.241 7.458,0.104 7.115,0.032 6.616,-0.105 6.117,-0.242 5.41,-0.304 4.834,-0.237 4.258,-0.171 3.608,-0.043 2.642,0.102 1.677,0.248 1.044,0.279 1.044,0.279 Z"
             style="fill:#40b93e;fill-opacity:1;fill-rule:nonzero;stroke:none"
             id="path6795"
             inkscape:connector-curvature="0" />
        </g>
      </g>
    </g>
  </g>
</svg>
