<?xml version="1.0" encoding="UTF-8" standalone="no"?>
<!-- Created with Inkscape (http://www.inkscape.org/) -->

<svg
   xmlns:dc="http://purl.org/dc/elements/1.1/"
   xmlns:cc="http://creativecommons.org/ns#"
   xmlns:rdf="http://www.w3.org/1999/02/22-rdf-syntax-ns#"
   xmlns:svg="http://www.w3.org/2000/svg"
   xmlns="http://www.w3.org/2000/svg"
   xmlns:sodipodi="http://sodipodi.sourceforge.net/DTD/sodipodi-0.dtd"
   xmlns:inkscape="http://www.inkscape.org/namespaces/inkscape"
   width="191.80002"
   height="191.79999"
   viewBox="0 0 50.74709 50.747082"
   version="1.1"
   id="svg8492"
   inkscape:version="0.92.4 (f8dce91, 2019-08-02)"
   sodipodi:docname="logo_type_negatif.svg">
  <defs
     id="defs8486" />
  <sodipodi:namedview
     id="base"
     pagecolor="#ffffff"
     bordercolor="#666666"
     borderopacity="1.0"
     inkscape:pageopacity="0.0"
     inkscape:pageshadow="2"
     inkscape:zoom="0.35"
     inkscape:cx="-263.91427"
     inkscape:cy="111.8"
     inkscape:document-units="mm"
     inkscape:current-layer="layer1"
     showgrid="false"
     fit-margin-top="0"
     fit-margin-left="0"
     fit-margin-right="0"
     fit-margin-bottom="0"
     inkscape:window-width="1600"
     inkscape:window-height="873"
     inkscape:window-x="0"
     inkscape:window-y="27"
     inkscape:window-maximized="1"
     units="px" />
  <metadata
     id="metadata8489">
    <rdf:RDF>
      <cc:Work
         rdf:about="">
        <dc:format>image/svg+xml</dc:format>
        <dc:type
           rdf:resource="http://purl.org/dc/dcmitype/StillImage" />
        <dc:title></dc:title>
      </cc:Work>
    </rdf:RDF>
  </metadata>
  <g
     inkscape:label="Calque 1"
     inkscape:groupmode="layer"
     id="layer1"
     transform="translate(-162.43148,-127.66667)">
    <g
       id="g6637"
       transform="translate(78.054574,61.110992)">
      <path
         inkscape:connector-curvature="0"
         id="path4728"
         style="fill:#000000;fill-opacity:1;fill-rule:nonzero;stroke:none;stroke-width:0.35277778"
         d="M 84.37691,117.30276 H 135.124 V 66.555677 H 84.37691 Z" />
      <g
         transform="matrix(0.35277777,0,0,-0.35277777,113.82744,82.229277)"
         id="g4738">
        <path
           inkscape:connector-curvature="0"
           id="path4740"
           style="fill:#f68712;fill-opacity:1;fill-rule:nonzero;stroke:none"
           d="m 0,0 0.055,0.09 c -0.161,0.761 -0.612,1.509 -1.213,2.1 -0.601,0.598 -1.339,1.036 -2.08,1.37 -0.328,0.233 -0.519,0.453 -0.926,0.584 l -0.02,-0.109 c -0.291,0.017 -0.043,0.101 -0.34,0.191 L -4.435,4.075 C -4.623,4.102 -4.81,4.127 -5,4.123 l 0.094,0.021 C -5.105,4.153 -5.326,4.14 -5.325,4.069 -5.357,4.133 -5.308,4.185 -5.563,4.177 -5.567,4.009 -5.931,4.009 -6.262,3.926 -6.257,3.946 -6.39,3.945 -6.303,3.983 -6.48,3.914 -6.636,3.863 -6.785,3.827 -6.934,3.789 -7.082,3.789 -7.222,3.754 -7.364,3.726 -7.506,3.697 -7.651,3.649 -7.794,3.593 -7.934,3.505 -8.075,3.384 L -8.077,3.405 C -8.64,3.244 -8.751,2.977 -9.307,2.673 l 0.07,-0.049 C -9.477,2.456 -9.732,2.235 -9.908,1.957 l 0.006,0.047 -0.15,-0.167 -0.01,0.019 C -10.103,1.77 -10.254,1.623 -10.33,1.449 l -0.012,0.018 c -0.111,-0.071 -0.172,-0.208 -0.21,-0.332 l -0.133,-0.08 c -0.063,-0.173 -0.174,-0.367 -0.273,-0.561 -0.109,-0.188 -0.19,-0.384 -0.189,-0.548 -0.231,-0.593 -0.366,-1.274 -0.421,-1.914 -0.021,-0.674 0.002,-1.094 0.029,-1.513 0.028,-0.207 0.026,-0.421 0.085,-0.653 0.025,-0.119 0.051,-0.244 0.08,-0.378 0.046,-0.132 0.095,-0.274 0.15,-0.429 0.333,-0.677 0.702,-1.078 1.05,-1.428 0.363,-0.338 0.686,-0.654 1.155,-1.058 0,0 0.113,-0.107 0.26,-0.221 0.147,-0.113 0.314,-0.258 0.388,-0.377 0.089,-0.116 0.059,-0.208 -0.191,-0.207 -0.124,0.002 -0.307,0.029 -0.571,0.091 -0.079,0.029 -0.171,0.062 -0.268,0.097 0.256,-0.168 0.522,-0.326 0.809,-0.458 0.065,-0.031 0.133,-0.052 0.198,-0.08 -0.085,0.095 -0.129,0.171 -0.137,0.211 -0.014,0.156 0.319,0.11 0.755,0.008 0.446,-0.073 1.012,-0.188 1.48,-0.185 0.232,-0.019 0.437,-0.005 0.584,10e-4 0.148,0.005 0.236,0.008 0.236,0.008 l 0.584,0.065 c 0.192,0.035 0.383,0.083 0.576,0.122 -0.004,0.011 0.089,0.08 0.133,0.078 0.584,0.274 1.209,0.519 1.816,0.854 0.596,0.338 1.176,0.776 1.48,1.352 0.13,0.186 0.239,0.437 0.382,0.683 0.105,0.269 0.256,0.535 0.343,0.825 0.228,0.561 0.344,1.137 0.497,1.53 0.124,0.686 -0.018,1.242 -0.037,1.886 l 0.042,0.185 c -0.059,0.112 -0.078,0.111 -0.104,0.275 0.043,-0.082 0.046,0.027 0.058,0.082 -0.027,0.055 -0.061,0.108 -0.096,0.16 C 0.288,-0.353 -0.109,-0.062 0,0 M 9.454,-2.792 C 9.299,-4.729 8.753,-6.577 8.119,-8.226 7.69,-9.411 6.85,-10.951 5.751,-12.27 c -1.089,-1.329 -2.444,-2.387 -3.474,-2.942 -1.675,-0.959 -2.874,-1.841 -4.448,-2.707 l -0.456,-0.182 c -0.262,-0.198 -0.261,-0.221 -0.653,-0.447 0.196,0.147 -0.065,0.019 -0.194,-0.032 l -0.393,-0.297 c -0.194,0.015 -0.971,-0.797 -1.102,-0.733 l -0.201,-0.022 c -1.777,-0.946 -3.627,-2.063 -5.502,-3.218 -0.937,-0.579 -1.882,-1.164 -2.825,-1.746 -0.472,-0.288 -0.944,-0.576 -1.413,-0.863 -0.713,-0.424 -1.422,-0.846 -2.126,-1.265 -0.056,0.344 -0.112,0.682 -0.167,1.018 -0.144,1.097 -0.12,1.328 -0.147,1.814 -0.02,0.444 -0.047,0.892 -0.13,1.447 l -0.108,-0.028 c -0.161,0.762 0.063,0.185 -0.035,0.993 l -0.081,-0.32 -0.279,1.507 0.068,-0.238 c -0.094,0.526 -0.222,1.108 -0.291,1.092 0.047,0.098 0.116,-0.019 0.003,0.657 -0.161,-0.013 -0.34,0.974 -0.52,1.897 0.023,-0.017 -0.021,0.344 0.047,0.097 -0.543,1.975 -0.376,3.174 -0.919,5.087 l 0.023,-0.018 c -0.155,1.564 -0.428,2.159 -0.627,3.886 l -0.069,-0.081 c -0.113,0.807 -0.263,1.706 -0.476,2.588 l 0.047,-0.102 c -0.04,0.209 -0.086,0.414 -0.118,0.629 l 0.023,-0.018 c -0.066,0.258 -0.119,0.858 -0.196,1.389 l 0.021,-0.021 c 0.011,0.36 -0.024,0.778 -0.052,1.137 l 0.075,0.4 c -0.031,0.52 0.027,1.167 0.12,1.787 0.102,0.619 0.224,1.212 0.284,1.652 0.444,1.8 1.277,3.686 2.407,5.223 0.585,0.806 1.096,1.443 1.622,1.933 0.491,0.525 0.996,0.895 1.479,1.277 1.004,0.709 2.027,1.389 3.807,2.09 2.005,0.839 3.57,1.126 5.046,1.261 0.373,0.017 0.739,0.033 1.107,0.05 0.37,-0.025 0.741,-0.051 1.124,-0.078 0.385,-0.014 0.771,-0.109 1.177,-0.188 0.203,-0.043 0.41,-0.087 0.624,-0.133 0.211,-0.052 0.421,-0.134 0.641,-0.204 0,0 0.442,-0.136 0.951,-0.329 0.495,-0.232 1.057,-0.513 1.337,-0.701 0.259,-0.203 0.272,-0.29 -0.33,-0.161 -0.388,0.067 -1.023,0.283 -2.01,0.47 0.715,-0.203 1.423,-0.464 2.118,-0.787 0.144,-0.066 0.285,-0.139 0.426,-0.21 -0.203,0.162 -0.329,0.278 -0.365,0.343 -0.064,0.107 0.103,0.089 0.428,-0.032 0.162,-0.059 0.363,-0.142 0.595,-0.244 0.234,-0.1 0.499,-0.216 0.76,-0.387 C 3.513,10.132 4.766,9.053 5.67,8.083 6.082,7.565 6.482,7.133 6.704,6.777 6.935,6.427 7.074,6.216 7.074,6.216 7.683,5.282 8.146,4.264 8.543,3.226 8.563,3.236 8.694,2.956 8.71,2.836 9.396,1.135 9.623,-0.866 9.454,-2.792 m -29.998,4.304 c 0.002,0.006 0.003,0.01 0.004,0.015 0.003,0.024 0.007,0.051 0.01,0.074 z m 9.396,-1.593 c 10e-4,0.01 10e-4,0.017 10e-4,0.027 l 0.003,0.005 z" />
      </g>
      <g
         transform="matrix(0.35277777,0,0,-0.35277777,114.49553,78.179597)"
         id="g4742">
        <path
           inkscape:connector-curvature="0"
           id="path4744"
           style="fill:#40b93e;fill-opacity:1;fill-rule:nonzero;stroke:none"
           d="m 0,0 c -0.296,-0.05 -3.008,5.123 -3.008,5.123 l 1.053,0.123 -0.654,3.365 c 0,0 -0.204,3.58 0.421,3.808 0.623,0.228 3.125,0.702 3.125,0.702 L -0.065,8.325 0.912,3.729 -0.275,1.893 Z" />
      </g>
      <g
         transform="matrix(0.35277777,0,0,-0.35277777,114.53751,78.190817)"
         id="g4746">
        <path
           inkscape:connector-curvature="0"
           id="path4748"
           style="fill:#40b93e;fill-opacity:1;fill-rule:nonzero;stroke:none"
           d="m 0,0 0.079,1.871 c 0,0 3.449,4.954 3.638,5.008 0.189,0.054 4.214,1.773 4.214,1.773 l 3.901,-2.539 3.52,-0.773 c 0,0 -1.876,-0.487 -1.939,-0.799 C 13.351,4.229 12.796,2.687 12.489,2.559 12.182,2.43 11.095,1.487 11.095,1.487 c 0,0 -1.166,-1.013 -1.448,-1.185 C 9.366,0.13 8.936,0.041 8.309,-0.131 7.681,-0.304 6.795,-0.381 6.071,-0.298 5.347,-0.214 4.531,-0.054 3.318,0.129 2.106,0.311 1.311,0.35 1.311,0.35 Z" />
      </g>
      <g
         transform="matrix(0.35277777,0,0,-0.35277777,102.00247,85.918167)"
         id="g4750">
        <path
           inkscape:connector-curvature="0"
           id="path4752"
           style="fill:#ed1c24;fill-opacity:1;fill-rule:nonzero;stroke:none"
           d="m 0,0 -0.018,0.01 c -0.185,-0.29 -0.033,-0.446 -0.147,-0.787 l 0.082,0.011 c -0.021,-0.161 -0.021,-0.35 0.062,-0.519 l -0.031,0.018 0.023,-0.121 -0.02,10e-4 C -0.02,-1.434 -0.019,-1.551 0.05,-1.64 H 0.031 C 0.006,-1.716 0.051,-1.789 0.107,-1.842 L 0.066,-1.936 c 0.149,-0.155 0.167,-0.474 0.36,-0.56 0.185,-0.296 0.442,-0.57 0.697,-0.806 0.296,-0.218 0.465,-0.343 0.663,-0.489 0.186,-0.137 0.381,-0.275 0.734,-0.386 0.417,-0.063 0.719,0.008 0.984,0.059 0.268,0.072 0.505,0.109 0.851,0.14 0.003,-0.01 0.335,0.065 0.52,-0.003 0.1,-0.026 0.147,-0.107 0.077,-0.263 -0.048,-0.1 -0.155,-0.251 -0.359,-0.419 0.175,0.059 0.35,0.127 0.519,0.212 0.039,0.02 0.073,0.043 0.111,0.063 -0.086,0.016 -0.146,0.041 -0.177,0.067 -0.101,0.101 0.023,0.271 0.211,0.447 0.18,0.194 0.423,0.409 0.588,0.616 0.09,0.097 0.161,0.187 0.208,0.256 0.051,0.065 0.082,0.105 0.082,0.105 0.131,0.176 0.248,0.364 0.347,0.562 -0.013,0.007 -0.019,0.075 0.004,0.091 0.045,0.368 0.201,0.702 0.308,1.083 0.105,0.373 0.154,0.797 -0.029,1.128 C 6.59,0.473 6.042,1.127 5.829,1.547 5.572,1.846 5.238,1.914 4.96,2.141 L 4.906,2.251 C 4.829,2.249 4.82,2.232 4.739,2.277 4.795,2.28 4.752,2.327 4.735,2.36 L 4.619,2.345 C 4.625,2.461 4.321,2.262 4.346,2.375 L 4.334,2.465 C 3.948,2.688 3.446,2.726 2.977,2.639 2.502,2.554 2.066,2.353 1.654,2.154 1.42,2.123 1.213,2.176 0.998,2.049 L 1.068,1.964 C 0.964,1.829 0.984,2.012 0.824,1.923 L 0.961,1.866 C 0.885,1.788 0.806,1.715 0.742,1.627 L 0.758,1.685 C 0.683,1.598 0.618,1.487 0.673,1.441 0.615,1.467 0.589,1.525 0.5,1.41 0.628,1.301 0.497,1.144 0.425,0.965 0.411,0.98 0.357,0.926 0.363,0.984 0.333,0.541 -0.097,0.464 0,0 M 12.628,-1.78 C 12.417,-2.929 12.426,-3.802 12.202,-4.849 L 12.083,-5.12 c 0.007,-0.197 0.025,-0.206 -0.022,-0.47 -0.004,0.147 -0.054,-0.019 -0.088,-0.095 l 0.009,-0.296 c -0.125,-0.075 0.072,-0.757 -0.055,-0.784 L 11.828,-6.86 c -0.278,-1.162 -0.462,-2.429 -0.629,-3.723 -0.081,-0.647 -0.164,-1.302 -0.246,-1.952 -0.049,-0.35 -0.097,-0.7 -0.145,-1.047 -0.087,-0.561 -0.174,-1.118 -0.26,-1.672 -0.183,0.097 -0.363,0.193 -0.542,0.289 -0.255,0.156 -0.476,0.3 -0.672,0.434 -0.184,0.127 -0.399,0.273 -0.472,0.342 -0.206,0.17 -0.418,0.334 -0.708,0.498 l -0.046,-0.101 c -0.423,0.185 -0.048,0.129 -0.457,0.386 l 0.097,-0.201 -0.816,0.399 0.142,-0.043 c -0.282,0.143 -0.608,0.28 -0.639,0.216 -0.018,0.08 0.071,0.088 -0.287,0.278 -0.082,-0.139 -0.615,0.125 -1.118,0.362 0.02,0.012 -0.163,0.127 -0.018,0.08 -1.165,0.377 -1.603,1.017 -2.74,1.367 l 0.02,0.012 c -0.773,0.527 -1.183,0.549 -2.052,1.108 L 0.238,-9.92 c -0.418,0.245 -0.891,0.494 -1.401,0.692 l 0.072,-0.005 c -0.116,0.054 -0.231,0.108 -0.348,0.172 l 0.021,0.01 c -0.154,0.055 -0.458,0.262 -0.756,0.405 l 0.023,0.009 c -0.162,0.152 -0.383,0.281 -0.575,0.391 -0.05,0.07 -0.102,0.135 -0.149,0.207 -0.564,0.322 -1.127,1.099 -1.533,1.462 -0.703,0.893 -1.288,2.019 -1.579,3.155 -0.331,1.185 -0.309,1.975 -0.273,2.726 0.1,0.748 0.192,1.491 0.583,2.588 0.395,1.263 0.86,2.114 1.367,2.865 0.509,0.75 1.129,1.381 2.086,1.971 0,0 0.235,0.156 0.53,0.308 0.304,0.137 0.66,0.28 0.867,0.316 0.202,0.021 0.265,-0.037 0.001,-0.311 -0.17,-0.189 -0.511,-0.451 -0.973,-0.9 0.379,0.271 0.778,0.525 1.208,0.742 0.098,0.049 0.2,0.086 0.298,0.131 C -0.477,6.987 -0.6,6.979 -0.656,7.012 -0.83,7.076 -0.412,7.388 0.271,7.712 0.955,8.034 1.927,8.264 2.726,8.347 3.126,8.372 3.481,8.384 3.734,8.384 3.987,8.367 4.14,8.356 4.14,8.356 4.478,8.342 4.811,8.289 5.142,8.226 5.478,8.181 5.799,8.076 6.125,7.99 6.127,8.003 6.32,7.997 6.382,7.954 7.476,7.72 8.536,7.078 9.394,6.277 10.262,5.472 10.925,4.52 11.513,3.625 c 0.424,-0.636 0.866,-1.61 1.083,-2.635 0.226,-1.024 0.198,-2.077 0.032,-2.77 m -17.03,-4.805 c -0.003,0.003 -0.006,0.008 -0.006,0.008 l -0.035,0.03 z m 4.842,4.081 -0.014,0.008 -0.001,0.002 z" />
      </g>
      <g
         transform="matrix(0.35277777,0,0,-0.35277777,101.75609,83.232607)"
         id="g4754">
        <path
           inkscape:connector-curvature="0"
           id="path4756"
           style="fill:#40b93e;fill-opacity:1;fill-rule:nonzero;stroke:none"
           d="M 0,0 1.921,2.393 2.16,4.627 2.538,6.477 2.015,9.402 0.896,7.324 -0.382,5.691 -0.702,2.874 -2.263,4.628 c 0,0 -0.394,0.515 -0.613,0.642 -0.22,0.127 -2.374,-0.373 -2.374,-0.373 0,0 -2.224,0.317 -2.099,0.115 C -7.224,4.81 -6.264,3.05 -6.208,2.758 -6.152,2.466 -6.755,1.733 -5.983,1.466 -5.212,1.2 -4.368,0.772 -4.08,0.758 -3.792,0.743 -2.294,0.819 -2.294,0.819 L -4.067,0.136 c 0,0 -1.179,0.173 -1.391,-0.034 -0.212,-0.207 -1.704,-1.471 -1.704,-1.471 l -1.941,-0.935 c 0.321,-0.44 0.961,-0.78 1.324,-0.692 0.361,0.088 0.515,-0.166 1.205,0.1 0.689,0.265 3.13,1.268 3.495,1.346 0.366,0.078 1.182,0.82 1.182,0.82 l 0.101,0.989 z" />
      </g>
      <g
         transform="matrix(0.35277777,0,0,-0.35277777,90.0645,96.141207)"
         id="g4758">
        <path
           inkscape:connector-curvature="0"
           id="path4760"
           style="fill:#ffffff;fill-opacity:1;fill-rule:nonzero;stroke:none"
           d="m 0,0 c 0.102,-0.549 0.194,-1.072 0.276,-1.57 0.08,-0.498 0.146,-1.013 0.197,-1.54 0.051,-0.53 0.072,-1.094 0.06,-1.693 -0.009,-0.601 -0.044,-1.277 -0.106,-2.029 0.509,0.143 1.114,0.296 1.816,0.458 0.701,0.163 1.356,0.405 1.967,0.732 0.61,0.325 1.098,0.752 1.464,1.281 0.365,0.528 0.457,1.23 0.275,2.105 -0.143,0.629 -0.407,1.143 -0.793,1.54 C 4.769,-0.32 4.306,-0.03 3.768,0.153 3.228,0.336 2.644,0.417 2.013,0.397 1.383,0.376 0.752,0.285 0.123,0.123 c 0.06,0 0.08,-0.011 0.06,-0.031 z m -1.067,9.364 c 0.081,-0.589 0.158,-1.14 0.23,-1.647 0.07,-0.509 0.141,-1.011 0.212,-1.51 C -0.554,5.709 -0.478,5.201 -0.396,4.683 -0.315,4.164 -0.224,3.599 -0.122,2.99 0.245,3.071 0.713,3.203 1.283,3.385 1.851,3.57 2.389,3.818 2.898,4.133 3.406,4.448 3.808,4.839 4.103,5.307 4.397,5.775 4.444,6.335 4.239,6.985 4.016,7.676 3.726,8.205 3.371,8.571 3.015,8.937 2.609,9.197 2.151,9.35 1.693,9.502 1.191,9.563 0.64,9.532 0.092,9.502 -0.478,9.445 -1.067,9.364 m -3.599,2.532 c 0.346,0.162 0.819,0.299 1.418,0.412 0.6,0.112 1.271,0.177 2.013,0.197 0.742,0.022 1.514,0.005 2.319,-0.045 0.803,-0.051 1.57,-0.158 2.301,-0.319 0.733,-0.164 1.405,-0.388 2.014,-0.672 0.61,-0.285 1.098,-0.63 1.464,-1.037 C 7.493,9.68 7.925,8.928 8.159,8.175 8.394,7.422 8.47,6.685 8.389,5.964 8.307,5.242 8.083,4.545 7.717,3.874 7.351,3.203 6.894,2.563 6.345,1.952 6.854,1.465 7.341,1.011 7.809,0.595 8.277,0.177 8.663,-0.294 8.969,-0.823 9.273,-1.353 9.487,-1.977 9.609,-2.7 9.731,-3.421 9.701,-4.341 9.517,-5.46 9.395,-6.192 9.07,-6.791 8.542,-7.259 8.011,-7.727 7.361,-8.113 6.589,-8.418 5.816,-8.722 4.972,-8.967 4.057,-9.15 3.143,-9.333 2.258,-9.496 1.404,-9.638 0.55,-9.779 -0.238,-9.922 -0.96,-10.065 c -0.723,-0.141 -1.276,-0.326 -1.662,-0.549 -0.346,-0.061 -0.646,-0.026 -0.9,0.107 -0.255,0.133 -0.438,0.305 -0.55,0.519 -0.112,0.213 -0.151,0.452 -0.121,0.716 0.03,0.264 0.157,0.507 0.381,0.732 0.101,0.345 0.234,0.625 0.397,0.839 0.163,0.213 0.265,0.493 0.305,0.839 0.061,0.284 0.095,0.595 0.107,0.93 0.01,0.336 0.003,0.778 -0.017,1.326 -0.019,0.55 -0.07,1.246 -0.153,2.091 -0.079,0.842 -0.187,1.915 -0.319,3.218 -0.132,1.3 -0.294,2.86 -0.488,4.681 -0.194,1.82 -0.422,3.99 -0.686,6.512" />
      </g>
      <g
         transform="matrix(0.35277777,0,0,-0.35277777,97.03751,99.325947)"
         id="g4762">
        <path
           inkscape:connector-curvature="0"
           id="path4764"
           style="fill:#ffffff;fill-opacity:1;fill-rule:nonzero;stroke:none"
           d="m 0,0 c 0.02,-0.041 0.025,-0.041 0.015,0 -0.01,0.04 -0.036,0.081 -0.076,0.122 0.02,-0.02 0.03,-0.041 0.03,-0.061 C -0.031,0.04 -0.021,0.02 0,0 m -1.465,3.355 c 0.245,0.346 0.407,0.65 0.488,0.914 0.082,0.265 0.133,0.514 0.153,0.748 0.019,0.234 0.036,0.452 0.045,0.656 0.011,0.202 0.047,0.426 0.107,0.672 -0.63,0.1 -1.312,0.167 -2.043,0.197 C -3.447,6.573 -4.118,6.486 -4.727,6.282 -5.338,6.078 -5.841,5.719 -6.238,5.2 -6.634,4.682 -6.823,3.934 -6.803,2.959 l 0.855,-0.64 c 0.61,-0.144 1.282,-0.119 2.014,0.075 0.731,0.192 1.555,0.514 2.469,0.961 m -2.226,5.063 c 1.24,0.122 2.069,0.325 2.485,0.609 0.418,0.286 0.554,0.58 0.413,0.885 -0.143,0.306 -0.494,0.59 -1.053,0.855 -0.559,0.264 -1.195,0.436 -1.906,0.518 -0.713,0.081 -1.424,0.03 -2.135,-0.152 -0.712,-0.183 -1.292,-0.56 -1.738,-1.128 -0.346,-0.042 -0.645,0.01 -0.901,0.152 -0.254,0.142 -0.427,0.335 -0.518,0.58 -0.092,0.243 -0.102,0.503 -0.031,0.777 0.072,0.274 0.259,0.523 0.565,0.747 0.305,0.101 0.519,0.233 0.641,0.396 0.122,0.164 0.325,0.326 0.61,0.489 1.301,0.691 2.464,1.072 3.492,1.144 1.026,0.071 1.916,-0.072 2.668,-0.427 0.753,-0.356 1.373,-0.875 1.861,-1.557 C 1.25,11.625 1.611,10.868 1.845,10.034 2.079,9.2 2.19,8.351 2.181,7.488 2.17,6.624 2.033,5.825 1.768,5.093 1.666,4.808 1.621,4.545 1.632,4.301 1.641,4.056 1.672,3.786 1.722,3.492 1.773,3.197 1.829,2.855 1.891,2.469 1.952,2.084 2.002,1.626 2.042,1.097 2.124,0.955 2.165,0.823 2.165,0.701 2.246,0.478 2.277,0.233 2.256,-0.031 c 0,-0.02 -0.01,-0.03 -0.03,-0.03 C 2.105,-0.366 1.936,-0.595 1.722,-0.747 1.509,-0.9 1.286,-0.971 1.052,-0.96 0.818,-0.951 0.595,-0.87 0.381,-0.717 0.168,-0.565 0,-0.346 -0.122,-0.061 -0.163,0.081 -0.183,0.182 -0.183,0.243 V 0.366 C -0.325,0.529 -0.407,0.68 -0.427,0.823 -0.508,0.884 -0.579,0.95 -0.64,1.021 -0.701,1.092 -0.764,1.169 -0.824,1.25 -0.885,1.332 -0.987,1.366 -1.128,1.357 -1.271,1.346 -1.363,1.392 -1.404,1.494 -1.506,1.453 -1.597,1.407 -1.678,1.357 -1.76,1.306 -1.841,1.26 -1.922,1.22 -2.532,0.833 -3.106,0.493 -3.645,0.199 c -0.539,-0.296 -1.072,-0.484 -1.602,-0.565 -0.528,-0.081 -1.063,-0.026 -1.6,0.167 -0.54,0.194 -1.114,0.595 -1.725,1.205 -0.181,0.183 -0.34,0.427 -0.472,0.732 -0.133,0.304 -0.234,0.634 -0.306,0.991 -0.07,0.356 -0.106,0.706 -0.106,1.053 0,0.346 0.051,0.66 0.152,0.945 0.081,0.224 0.158,0.407 0.229,0.549 0.072,0.142 0.178,0.295 0.322,0.458 0.201,0.244 0.386,0.458 0.548,0.64 0.041,0.041 0.085,0.087 0.136,0.138 0.051,0.049 0.066,0.056 0.046,0.015 0.103,0.162 0.24,0.361 0.413,0.594 0.172,0.234 0.33,0.402 0.473,0.504 0.385,0.306 0.863,0.483 1.433,0.534 0.569,0.051 1.087,0.116 1.556,0.199 z" />
      </g>
      <g
         transform="matrix(0.35277777,0,0,-0.35277777,101.38465,94.634667)"
         id="g4766">
        <path
           inkscape:connector-curvature="0"
           id="path4768"
           style="fill:#ffffff;fill-opacity:1;fill-rule:nonzero;stroke:none"
           d="m 0,0 c 0.711,-0.448 1.067,-0.824 1.067,-1.128 0,-0.305 -0.208,-0.58 -0.625,-0.824 -0.417,-0.244 -0.956,-0.478 -1.616,-0.701 -0.661,-0.225 -1.297,-0.488 -1.906,-0.794 -0.611,-0.305 -1.11,-0.671 -1.496,-1.098 -0.386,-0.426 -0.518,-0.965 -0.395,-1.616 -0.021,-0.103 -0.037,-0.193 -0.046,-0.275 -0.012,-0.081 -0.016,-0.141 -0.016,-0.182 -0.061,-0.997 -0.142,-1.999 -0.244,-3.005 -0.102,-1.007 -0.162,-2.079 -0.183,-3.218 -0.021,-0.407 -0.173,-0.712 -0.457,-0.915 -0.286,-0.202 -0.606,-0.309 -0.961,-0.32 -0.356,-0.01 -0.698,0.061 -1.023,0.214 -0.325,0.152 -0.538,0.401 -0.64,0.746 -0.081,0.184 -0.122,0.325 -0.122,0.427 0,0.102 0.02,0.23 0.061,0.381 0.041,0.153 0.092,0.366 0.153,0.641 0.061,0.275 0.111,0.671 0.153,1.19 0.04,0.519 0.06,1.205 0.06,2.059 0,0.854 -0.03,1.931 -0.092,3.233 0.082,0.975 0.112,1.916 0.092,2.821 -0.02,0.905 -0.03,1.835 -0.03,2.791 0,0.284 0.096,0.529 0.29,0.733 0.193,0.202 0.432,0.344 0.717,0.427 0.284,0.08 0.589,0.085 0.914,0.014 0.325,-0.07 0.62,-0.233 0.885,-0.487 0.264,-0.254 0.468,-0.621 0.61,-1.099 0.143,-0.478 0.172,-1.082 0.092,-1.814 0.061,0.019 0.162,0.08 0.305,0.182 0.142,0.102 0.289,0.204 0.442,0.306 0.153,0.101 0.299,0.198 0.441,0.29 0.143,0.09 0.245,0.146 0.306,0.167 0.468,0.346 1.006,0.569 1.617,0.671 C -1.037,-0.082 -0.489,-0.021 0,0" />
      </g>
      <g
         transform="matrix(0.35277777,0,0,-0.35277777,105.20393,96.345637)"
         id="g4770">
        <path
           inkscape:connector-curvature="0"
           id="path4772"
           style="fill:#ffffff;fill-opacity:1;fill-rule:nonzero;stroke:none"
           d="M 0,0 C 0.021,0.224 0.026,0.493 0.016,0.809 0.005,1.123 0.01,1.455 0.031,1.799 -0.051,1.86 -0.142,1.972 -0.243,2.136 -1.036,2.888 -1.784,3.218 -2.486,3.126 -3.187,3.036 -3.803,2.7 -4.33,2.12 -4.86,1.54 -5.281,0.809 -5.597,-0.076 -5.911,-0.96 -6.074,-1.819 -6.085,-2.654 c -0.01,-0.833 0.152,-1.555 0.488,-2.165 0.336,-0.609 0.889,-0.915 1.663,-0.915 0.325,0 0.64,0.066 0.945,0.199 0.306,0.131 0.594,0.294 0.869,0.488 0.275,0.193 0.524,0.39 0.747,0.594 0.225,0.203 0.417,0.366 0.58,0.488 0.204,0.285 0.468,0.559 0.793,0.824 -0.041,1.118 -0.041,2.165 0,3.141 m 3.264,-1.647 c 0.041,-1.078 0.081,-2.297 0.121,-3.66 0.042,-1.363 0.072,-2.745 0.093,-4.147 0.02,-1.405 0.02,-2.751 0,-4.043 -0.021,-1.291 -0.072,-2.394 -0.153,-3.309 0,-0.04 -0.015,-0.08 -0.046,-0.121 -0.03,-0.041 -0.066,-0.082 -0.106,-0.123 -0.183,-0.224 -0.346,-0.33 -0.489,-0.321 -0.143,0.012 -0.356,-0.025 -0.64,-0.106 -0.041,0 -0.076,0.016 -0.107,0.046 -0.031,0.031 -0.056,0.035 -0.076,0.014 -0.081,-0.039 -0.142,-0.095 -0.183,-0.167 -0.041,-0.071 -0.102,-0.107 -0.183,-0.107 v -0.03 c -0.062,0.02 -0.128,0.035 -0.198,0.046 -0.072,0.01 -0.138,0.025 -0.199,0.045 -0.02,0.021 -0.03,0.036 -0.03,0.046 0,0.011 -0.011,0.026 -0.031,0.046 -0.305,0.142 -0.487,0.388 -0.548,0.732 -0.225,1.363 -0.326,2.796 -0.306,4.301 0.02,1.505 0.02,2.939 0,4.3 v 0.87 c 0,0.294 -0.01,0.595 -0.03,0.9 -0.284,-0.427 -0.686,-0.85 -1.204,-1.266 -0.519,-0.417 -1.043,-0.676 -1.572,-0.778 -0.712,-0.143 -1.316,-0.183 -1.814,-0.121 -0.499,0.06 -0.931,0.198 -1.297,0.411 -0.366,0.214 -0.692,0.488 -0.976,0.823 -0.285,0.336 -0.569,0.717 -0.853,1.144 -0.55,0.813 -0.907,1.688 -1.069,2.623 -0.163,0.935 -0.178,1.86 -0.044,2.776 0.131,0.915 0.406,1.774 0.822,2.577 0.417,0.803 0.946,1.484 1.586,2.044 0.641,0.558 1.372,0.96 2.197,1.205 0.823,0.243 1.723,0.253 2.698,0.03 0.286,-0.062 0.57,-0.204 0.855,-0.427 C -0.233,4.382 0.021,4.179 0.245,3.996 0.346,4.504 0.478,4.88 0.642,5.124 0.763,5.328 0.946,5.481 1.19,5.582 1.433,5.684 1.687,5.729 1.952,5.719 2.216,5.709 2.465,5.644 2.699,5.522 2.934,5.398 3.092,5.217 3.173,4.971 3.335,4.504 3.427,3.985 3.447,3.417 3.468,2.847 3.462,2.268 3.432,1.678 3.402,1.088 3.366,0.504 3.325,-0.076 3.284,-0.655 3.264,-1.179 3.264,-1.647" />
      </g>
      <g
         transform="matrix(0.35277777,0,0,-0.35277777,107.08695,94.376187)"
         id="g4774">
        <path
           inkscape:connector-curvature="0"
           id="path4776"
           style="fill:#ffffff;fill-opacity:1;fill-rule:nonzero;stroke:none"
           d="M 0,0 C 0.061,0.263 0.183,0.483 0.366,0.655 0.55,0.828 0.752,0.946 0.977,1.006 1.2,1.067 1.434,1.077 1.678,1.036 1.923,0.995 2.125,0.905 2.288,0.762 2.573,0.213 2.786,-0.463 2.929,-1.266 3.071,-2.07 3.177,-2.924 3.249,-3.829 3.32,-4.734 3.376,-5.649 3.417,-6.573 3.456,-7.499 3.507,-8.338 3.57,-9.09 c 0.019,-0.305 0.045,-0.544 0.075,-0.716 0.031,-0.174 0.071,-0.322 0.122,-0.443 0.051,-0.121 0.122,-0.255 0.213,-0.396 0.092,-0.143 0.208,-0.346 0.351,-0.61 0.306,-0.529 0.66,-0.768 1.068,-0.717 0.407,0.05 0.824,0.234 1.251,0.548 0.427,0.316 0.849,0.687 1.265,1.114 0.416,0.427 0.778,0.752 1.083,0.976 0.041,1.993 0.077,3.778 0.107,5.354 0.031,1.575 0.143,2.81 0.336,3.706 0.193,0.893 0.518,1.382 0.975,1.463 0.458,0.08 1.124,-0.376 1.999,-1.373 -0.061,-0.895 -0.158,-1.824 -0.291,-2.79 -0.132,-0.967 -0.249,-1.947 -0.349,-2.944 -0.104,-0.996 -0.159,-1.993 -0.17,-2.988 -0.009,-0.997 0.077,-1.953 0.26,-2.869 0.02,0.305 0.046,0.393 0.077,0.26 0.03,-0.132 0.056,-0.34 0.076,-0.625 0.019,-0.285 0.031,-0.59 0.031,-0.916 0,-0.325 -0.031,-0.548 -0.093,-0.669 -0.142,-0.388 -0.34,-0.652 -0.594,-0.794 -0.254,-0.142 -0.523,-0.183 -0.807,-0.122 -0.347,-0.203 -0.718,-0.157 -1.114,0.138 -0.397,0.294 -0.615,0.757 -0.656,1.387 -0.02,0.162 -0.03,0.325 -0.03,0.487 v 0.489 c -0.388,-0.469 -0.81,-0.91 -1.266,-1.327 -0.458,-0.417 -0.951,-0.748 -1.48,-0.99 -0.264,-0.123 -0.59,-0.214 -0.976,-0.275 -0.387,-0.062 -0.722,-0.041 -1.007,0.061 -0.853,0.284 -1.54,0.752 -2.058,1.402 -0.518,0.651 -0.916,1.408 -1.19,2.273 -0.274,0.863 -0.453,1.804 -0.533,2.821 -0.082,1.016 -0.128,2.018 -0.139,3.004 -0.009,0.987 -0.009,1.932 0,2.838 C 0.117,-1.43 0.082,-0.652 0,0" />
      </g>
      <g
         transform="matrix(0.35277777,0,0,-0.35277777,114.4575,95.000637)"
         id="g4778">
        <path
           inkscape:connector-curvature="0"
           id="path4780"
           style="fill:#ffffff;fill-opacity:1;fill-rule:nonzero;stroke:none"
           d="m 0,0 c -0.57,-0.081 -1.012,-0.168 -1.327,-0.259 -0.315,-0.091 -0.574,-0.234 -0.778,-0.427 -0.204,-0.194 -0.381,-0.447 -0.534,-0.762 -0.153,-0.315 -0.35,-0.738 -0.594,-1.266 1.037,0.019 2.093,0 3.172,-0.061 C 1.016,-2.836 2.064,-2.847 3.08,-2.806 3.019,-2.237 2.893,-1.783 2.699,-1.448 2.506,-1.113 2.267,-0.849 1.983,-0.655 1.698,-0.463 1.387,-0.32 1.052,-0.228 0.717,-0.136 0.366,-0.061 0,0 m 2.379,-5.337 c -0.386,0 -0.844,0.011 -1.373,0.03 -0.528,0.02 -1.072,0.031 -1.632,0.031 h -1.63 c -0.53,0 -0.987,-0.011 -1.373,-0.031 -0.062,-0.446 -0.036,-0.895 0.076,-1.342 0.111,-0.447 0.3,-0.874 0.564,-1.28 0.264,-0.408 0.6,-0.773 1.007,-1.098 0.406,-0.326 0.883,-0.58 1.433,-0.764 0.202,-0.081 0.457,-0.151 0.762,-0.214 0.306,-0.06 0.616,-0.102 0.931,-0.121 0.315,-0.02 0.604,-0.01 0.869,0.031 0.264,0.039 0.468,0.111 0.61,0.214 0.183,0.121 0.377,0.223 0.58,0.303 0.202,0.082 0.366,0.184 0.488,0.306 0.041,0.041 0.061,0.087 0.061,0.138 0,0.051 0.01,0.107 0.031,0.167 l 0.029,-0.031 c 0.122,0.224 0.291,0.361 0.504,0.412 0.214,0.051 0.406,0.046 0.58,-0.014 0.172,-0.062 0.299,-0.179 0.381,-0.352 0.081,-0.172 0.07,-0.381 -0.031,-0.626 -0.407,-0.894 -0.965,-1.591 -1.677,-2.089 -0.712,-0.498 -1.496,-0.807 -2.349,-0.93 -0.854,-0.122 -1.734,-0.076 -2.639,0.138 -0.905,0.213 -1.754,0.58 -2.546,1.098 -0.794,0.519 -1.49,1.174 -2.089,1.967 -0.601,0.794 -1.007,1.698 -1.22,2.714 -0.214,1.017 -0.204,2.14 0.03,3.371 0.234,1.23 0.788,2.547 1.663,3.949 0.345,0.55 0.868,0.997 1.57,1.344 0.702,0.344 1.474,0.573 2.318,0.686 C -0.849,2.781 0.02,2.76 0.914,2.609 1.809,2.456 2.628,2.171 3.371,1.754 4.113,1.336 4.717,0.768 5.185,0.046 c 0.468,-0.722 0.711,-1.601 0.732,-2.639 0,-0.711 -0.011,-1.255 -0.031,-1.63 -0.02,-0.378 -0.137,-0.652 -0.35,-0.824 -0.213,-0.173 -0.565,-0.27 -1.052,-0.29 -0.488,-0.021 -1.191,-0.021 -2.105,0" />
      </g>
      <g
         transform="matrix(0.35277777,0,0,-0.35277777,117.63169,92.106167)"
         id="g4782">
        <path
           inkscape:connector-curvature="0"
           id="path4784"
           style="fill:#ffffff;fill-opacity:1;fill-rule:nonzero;stroke:none"
           d="M 0,0 C 0.062,0.123 0.189,0.346 0.382,0.672 0.575,0.997 0.819,1.317 1.113,1.632 1.409,1.947 1.729,2.207 2.075,2.41 2.42,2.613 2.765,2.654 3.111,2.532 3.579,2.246 3.884,1.892 4.026,1.464 4.169,1.038 4.22,0.59 4.179,0.123 4.179,-0.243 4.143,-0.63 4.072,-1.036 4.001,-1.443 3.914,-1.829 3.812,-2.195 L 7.29,-2.959 7.472,-3.141 c 0.102,0 0.204,-0.006 0.306,-0.015 0.102,-0.011 0.213,-0.017 0.336,-0.017 0.04,-0.019 0.086,-0.04 0.136,-0.06 0.051,-0.02 0.097,-0.041 0.138,-0.061 l 0.154,-0.153 c 0.019,-0.019 0.049,-0.07 0.09,-0.152 0.019,-0.02 0.031,-0.051 0.031,-0.091 0.02,-0.062 0.031,-0.133 0.031,-0.214 0,-0.122 -0.052,-0.255 -0.152,-0.397 0,-0.019 -0.022,-0.05 -0.063,-0.091 L 8.418,-4.453 C 8.317,-4.514 8.195,-4.565 8.052,-4.606 L 3.57,-5.001 H 3.538 c -0.04,0 -0.065,-0.006 -0.076,-0.015 C 3.452,-5.028 3.436,-5.033 3.417,-5.033 3.396,-5.195 3.385,-5.343 3.385,-5.474 V -5.916 C 3.406,-6.405 3.406,-7 3.385,-7.701 3.366,-8.402 3.356,-9.155 3.356,-9.958 c 0,-0.804 0.015,-1.623 0.046,-2.455 0.03,-0.834 0.117,-1.632 0.258,-2.394 0.143,-0.764 0.351,-1.465 0.625,-2.105 0.275,-0.64 0.646,-1.165 1.114,-1.572 0.183,-0.162 0.361,-0.243 0.534,-0.243 0.172,0 0.341,0.03 0.503,0.091 0.163,0.06 0.33,0.132 0.503,0.213 0.173,0.082 0.351,0.133 0.533,0.153 h 0.337 c 0.039,0.061 0.085,0.147 0.136,0.259 0.051,0.112 0.087,0.199 0.107,0.26 0.204,0.345 0.468,0.497 0.793,0.458 0.326,-0.041 0.539,-0.254 0.641,-0.641 0,-0.55 -0.107,-1.023 -0.32,-1.419 -0.214,-0.396 -0.498,-0.716 -0.854,-0.96 -0.356,-0.244 -0.757,-0.427 -1.204,-0.55 -0.448,-0.121 -0.916,-0.182 -1.404,-0.182 -0.286,-0.122 -0.609,-0.143 -0.975,-0.061 -0.367,0.081 -0.733,0.224 -1.099,0.427 -0.407,0.163 -0.768,0.36 -1.083,0.594 -0.315,0.234 -0.553,0.503 -0.716,0.808 -0.225,0.224 -0.417,0.437 -0.58,0.641 -0.163,0.203 -0.286,0.376 -0.367,0.518 -0.223,0.387 -0.365,0.767 -0.426,1.145 -0.061,0.376 -0.102,0.777 -0.122,1.204 l -0.427,3.63 c -0.04,1.28 -0.082,2.567 -0.122,3.858 -0.041,1.291 -0.051,2.588 -0.03,3.889 l -2.867,0.031 c -0.386,0.06 -0.621,0.254 -0.702,0.579 -0.021,0.081 -0.03,0.193 -0.03,0.335 0.04,0.143 0.111,0.265 0.213,0.367 0.041,0.041 0.102,0.08 0.182,0.121 0.021,0.022 0.041,0.032 0.062,0.032 0.02,0 0.04,0.009 0.061,0.031 0.061,0.02 0.151,0.029 0.274,0.029 0.163,0 0.413,0.01 0.748,0.031 0.335,0.02 0.585,0.05 0.747,0.09 0.223,0.063 0.396,0.139 0.519,0.231 0.122,0.09 0.228,0.187 0.32,0.289 0.091,0.101 0.178,0.203 0.259,0.305 0.081,0.102 0.183,0.183 0.304,0.244 0.022,0.285 0.041,0.564 0.062,0.838 0.02,0.276 0.05,0.555 0.091,0.839" />
      </g>
      <g
         transform="matrix(0.35277777,0,0,-0.35277777,122.33404,92.106167)"
         id="g4786">
        <path
           inkscape:connector-curvature="0"
           id="path4788"
           style="fill:#ffffff;fill-opacity:1;fill-rule:nonzero;stroke:none"
           d="M 0,0 C 0.062,0.123 0.189,0.346 0.382,0.672 0.575,0.997 0.819,1.317 1.113,1.632 1.408,1.947 1.729,2.207 2.075,2.41 2.419,2.613 2.765,2.654 3.111,2.532 3.579,2.246 3.884,1.892 4.026,1.464 4.169,1.038 4.22,0.59 4.179,0.123 4.179,-0.243 4.143,-0.63 4.072,-1.036 4.001,-1.443 3.914,-1.829 3.812,-2.195 L 7.29,-2.959 7.473,-3.141 c 0.101,0 0.203,-0.006 0.305,-0.015 0.102,-0.011 0.213,-0.017 0.336,-0.017 0.04,-0.019 0.086,-0.04 0.136,-0.06 0.052,-0.02 0.097,-0.041 0.138,-0.061 l 0.153,-0.153 c 0.02,-0.019 0.05,-0.07 0.091,-0.152 0.019,-0.02 0.031,-0.051 0.031,-0.091 0.02,-0.062 0.031,-0.133 0.031,-0.214 0,-0.122 -0.052,-0.255 -0.153,-0.397 0,-0.019 -0.021,-0.05 -0.062,-0.091 L 8.418,-4.453 C 8.317,-4.514 8.195,-4.565 8.052,-4.606 L 3.57,-5.001 H 3.538 c -0.04,0 -0.065,-0.006 -0.075,-0.015 C 3.452,-5.028 3.436,-5.033 3.417,-5.033 3.396,-5.195 3.385,-5.343 3.385,-5.474 V -5.916 C 3.406,-6.405 3.406,-7 3.385,-7.701 3.366,-8.402 3.356,-9.155 3.356,-9.958 c 0,-0.804 0.015,-1.623 0.046,-2.455 0.03,-0.834 0.117,-1.632 0.258,-2.394 0.143,-0.764 0.351,-1.465 0.625,-2.105 0.275,-0.64 0.646,-1.165 1.113,-1.572 0.184,-0.162 0.362,-0.243 0.534,-0.243 0.172,0 0.342,0.03 0.504,0.091 0.163,0.06 0.33,0.132 0.503,0.213 0.173,0.082 0.351,0.133 0.534,0.153 h 0.336 c 0.04,0.061 0.085,0.147 0.136,0.259 0.051,0.112 0.088,0.199 0.107,0.26 0.204,0.345 0.468,0.497 0.793,0.458 0.325,-0.041 0.539,-0.254 0.64,-0.641 0,-0.55 -0.107,-1.023 -0.319,-1.419 -0.214,-0.396 -0.498,-0.716 -0.854,-0.96 -0.356,-0.244 -0.757,-0.427 -1.204,-0.55 -0.448,-0.121 -0.916,-0.182 -1.404,-0.182 -0.286,-0.122 -0.61,-0.143 -0.975,-0.061 -0.367,0.081 -0.733,0.224 -1.099,0.427 -0.407,0.163 -0.768,0.36 -1.084,0.594 -0.315,0.234 -0.553,0.503 -0.716,0.808 -0.224,0.224 -0.417,0.437 -0.579,0.641 -0.163,0.203 -0.286,0.376 -0.367,0.518 -0.223,0.387 -0.365,0.767 -0.426,1.145 -0.061,0.376 -0.102,0.777 -0.122,1.204 l -0.427,3.63 c -0.04,1.28 -0.082,2.567 -0.122,3.858 -0.041,1.291 -0.051,2.588 -0.03,3.889 l -2.867,0.031 c -0.386,0.06 -0.621,0.254 -0.702,0.579 -0.021,0.081 -0.03,0.193 -0.03,0.335 0.04,0.143 0.111,0.265 0.213,0.367 0.041,0.041 0.102,0.08 0.182,0.121 0.021,0.022 0.041,0.032 0.062,0.032 0.02,0 0.04,0.009 0.061,0.031 0.061,0.02 0.151,0.029 0.274,0.029 0.163,0 0.413,0.01 0.748,0.031 0.334,0.02 0.584,0.05 0.747,0.09 0.223,0.063 0.395,0.139 0.519,0.231 0.122,0.09 0.228,0.187 0.32,0.289 0.091,0.101 0.178,0.203 0.259,0.305 0.081,0.102 0.183,0.183 0.304,0.244 0.022,0.285 0.041,0.564 0.062,0.838 0.02,0.276 0.05,0.555 0.091,0.839" />
      </g>
      <g
         transform="matrix(0.35277777,0,0,-0.35277777,128.99476,95.000637)"
         id="g4790">
        <path
           inkscape:connector-curvature="0"
           id="path4792"
           style="fill:#ffffff;fill-opacity:1;fill-rule:nonzero;stroke:none"
           d="m 0,0 c -0.57,-0.081 -1.011,-0.168 -1.327,-0.259 -0.315,-0.091 -0.574,-0.234 -0.778,-0.427 -0.203,-0.194 -0.381,-0.447 -0.534,-0.762 -0.153,-0.315 -0.35,-0.738 -0.594,-1.266 1.037,0.019 2.093,0 3.172,-0.061 C 1.016,-2.836 2.064,-2.847 3.08,-2.806 3.02,-2.237 2.893,-1.783 2.7,-1.448 2.506,-1.113 2.268,-0.849 1.984,-0.655 1.698,-0.463 1.387,-0.32 1.052,-0.228 0.717,-0.136 0.366,-0.061 0,0 m 2.379,-5.337 c -0.385,0 -0.844,0.011 -1.373,0.03 -0.528,0.02 -1.072,0.031 -1.631,0.031 h -1.631 c -0.53,0 -0.987,-0.011 -1.373,-0.031 -0.062,-0.446 -0.036,-0.895 0.076,-1.342 0.111,-0.447 0.3,-0.874 0.564,-1.28 0.264,-0.408 0.6,-0.773 1.007,-1.098 0.406,-0.326 0.884,-0.58 1.433,-0.764 0.203,-0.081 0.457,-0.151 0.763,-0.214 0.305,-0.06 0.615,-0.102 0.93,-0.121 0.315,-0.02 0.605,-0.01 0.869,0.031 0.264,0.039 0.468,0.111 0.611,0.214 0.182,0.121 0.376,0.223 0.579,0.303 0.203,0.082 0.367,0.184 0.488,0.306 0.041,0.041 0.061,0.087 0.061,0.138 0,0.051 0.01,0.107 0.031,0.167 l 0.029,-0.031 c 0.122,0.224 0.291,0.361 0.504,0.412 0.214,0.051 0.406,0.046 0.58,-0.014 0.172,-0.062 0.299,-0.179 0.381,-0.352 0.081,-0.172 0.07,-0.381 -0.031,-0.626 -0.407,-0.894 -0.965,-1.591 -1.676,-2.089 -0.713,-0.498 -1.496,-0.807 -2.35,-0.93 -0.854,-0.122 -1.734,-0.076 -2.639,0.138 -0.905,0.213 -1.754,0.58 -2.546,1.098 -0.793,0.519 -1.49,1.174 -2.089,1.967 -0.601,0.794 -1.007,1.698 -1.22,2.714 -0.214,1.017 -0.204,2.14 0.03,3.371 0.234,1.23 0.788,2.547 1.663,3.949 0.345,0.55 0.869,0.997 1.57,1.344 0.702,0.344 1.474,0.573 2.318,0.686 C -0.849,2.781 0.02,2.76 0.914,2.609 1.809,2.456 2.629,2.171 3.371,1.754 4.113,1.336 4.717,0.768 5.185,0.046 5.653,-0.676 5.896,-1.555 5.918,-2.593 5.918,-3.304 5.906,-3.848 5.887,-4.223 5.867,-4.601 5.75,-4.875 5.537,-5.047 5.323,-5.22 4.971,-5.317 4.484,-5.337 c -0.488,-0.021 -1.19,-0.021 -2.105,0" />
      </g>
      <g
         transform="matrix(0.35277777,0,0,-0.35277777,119.56173,106.82191)"
         id="g4794">
        <path
           inkscape:connector-curvature="0"
           id="path4796"
           style="fill:#ffffff;fill-opacity:1;fill-rule:nonzero;stroke:none"
           d="m 0,0 c -1.505,1.443 -2.558,3.008 -3.156,4.695 -0.6,1.687 -0.839,3.349 -0.716,4.986 0.121,1.636 0.568,3.171 1.341,4.604 0.772,1.433 1.773,2.623 3.004,3.568 1.23,0.946 2.641,1.575 4.238,1.89 1.596,0.315 3.288,0.169 5.077,-0.441 0.447,-0.163 0.828,-0.427 1.143,-0.793 0.315,-0.367 0.523,-0.762 0.625,-1.189 0.102,-0.427 0.081,-0.854 -0.06,-1.281 C 11.353,15.611 11.048,15.266 10.581,15.002 9.991,14.88 9.524,14.981 9.178,15.307 8.832,15.632 8.69,16.008 8.751,16.435 8.71,16.455 8.659,16.476 8.599,16.496 8.538,16.516 8.487,16.547 8.446,16.588 7.978,16.913 7.466,17.111 6.906,17.182 6.346,17.253 5.778,17.233 5.199,17.121 4.619,17.009 4.065,16.821 3.537,16.556 3.008,16.292 2.551,16.008 2.165,15.703 1.535,15.215 1.011,14.605 0.595,13.874 0.177,13.142 -0.128,12.349 -0.32,11.496 -0.514,10.642 -0.595,9.762 -0.565,8.858 -0.533,7.953 -0.387,7.093 -0.122,6.281 0.142,5.468 0.512,4.731 0.991,4.069 1.468,3.409 2.068,2.896 2.79,2.53 3.511,2.164 4.345,1.981 5.291,1.981 c 0.945,0 2.007,0.245 3.186,0.732 0.122,0.102 0.248,0.188 0.381,0.26 0.133,0.07 0.259,0.127 0.381,0.167 0.184,0.325 0.417,0.539 0.702,0.641 0.284,0.101 0.569,0.121 0.854,0.06 C 11.078,3.781 11.343,3.653 11.587,3.46 11.831,3.267 12.003,3.038 12.105,2.774 12.207,2.428 12.228,2.129 12.167,1.875 12.105,1.62 11.993,1.341 11.831,1.036 11.464,0.284 11.003,-0.321 10.443,-0.778 9.884,-1.236 9.259,-1.571 8.569,-1.784 7.876,-1.998 7.15,-2.1 6.387,-2.089 5.626,-2.079 4.864,-1.988 4.101,-1.815 3.338,-1.642 2.607,-1.399 1.906,-1.083 1.205,-0.768 0.568,-0.407 0,0" />
      </g>
      <g
         transform="matrix(0.35277777,0,0,-0.35277777,125.23048,100.49696)"
         id="g4798">
        <path
           inkscape:connector-curvature="0"
           id="path4800"
           style="fill:#ffffff;fill-opacity:1;fill-rule:nonzero;stroke:none"
           d="M 0,0 C 0.65,0.041 1.103,-0.076 1.357,-0.35 1.611,-0.625 1.738,-0.955 1.738,-1.341 1.738,-1.484 1.724,-1.647 1.692,-1.829 1.662,-2.013 1.571,-2.195 1.418,-2.379 1.266,-2.561 1.037,-2.714 0.732,-2.835 0.427,-2.959 0,-3.029 -0.548,-3.049 c -0.407,0.081 -0.737,0.233 -0.992,0.457 -0.254,0.223 -0.381,0.508 -0.381,0.854 0,0.142 0.016,0.31 0.046,0.503 0.03,0.193 0.107,0.372 0.229,0.534 0.122,0.163 0.31,0.31 0.565,0.442 C -0.829,-0.127 -0.468,-0.041 0,0 m 1.433,-18.784 c -0.06,-0.304 -0.194,-0.553 -0.396,-0.747 -0.203,-0.192 -0.437,-0.315 -0.702,-0.366 -0.264,-0.05 -0.524,-0.035 -0.777,0.046 -0.254,0.082 -0.453,0.234 -0.595,0.458 -0.223,0.041 -0.432,0.141 -0.624,0.305 -0.193,0.162 -0.341,0.396 -0.443,0.701 0.061,1.727 0.082,3.436 0.061,5.123 -0.02,1.686 0.041,3.395 0.184,5.122 0.019,0.367 0.034,0.718 0.045,1.052 0.01,0.336 0.035,0.661 0.076,0.976 0.041,0.316 0.126,0.615 0.26,0.9 0.13,0.284 0.351,0.558 0.656,0.823 0.1,0.082 0.289,0.123 0.563,0.123 0.274,0 0.472,0.039 0.594,0.122 C 0.762,-4.33 1.057,-4.589 1.22,-4.924 1.382,-5.26 1.484,-5.626 1.525,-6.023 1.565,-6.419 1.56,-6.83 1.51,-7.257 1.458,-7.684 1.433,-8.091 1.433,-8.477 c -0.06,-1.728 -0.097,-3.445 -0.106,-5.153 -0.011,-1.709 0.025,-3.425 0.106,-5.154" />
      </g>
      <g
         transform="matrix(0.35277777,0,0,-0.35277777,128.99533,102.96051)"
         id="g4802">
        <path
           inkscape:connector-curvature="0"
           id="path4804"
           style="fill:#ffffff;fill-opacity:1;fill-rule:nonzero;stroke:none"
           d="m 0,0 c -0.57,-0.081 -1.011,-0.168 -1.327,-0.259 -0.314,-0.09 -0.574,-0.233 -0.778,-0.427 -0.203,-0.194 -0.381,-0.446 -0.533,-0.762 -0.153,-0.315 -0.349,-0.737 -0.594,-1.265 1.037,0.019 2.093,0 3.171,-0.061 1.077,-0.061 2.124,-0.072 3.14,-0.031 -0.06,0.57 -0.187,1.022 -0.38,1.357 -0.194,0.335 -0.432,0.6 -0.716,0.793 C 1.697,-0.463 1.387,-0.32 1.052,-0.228 0.717,-0.136 0.366,-0.061 0,0 m 2.378,-5.335 c -0.385,0 -0.844,0.01 -1.372,0.03 -0.528,0.019 -1.072,0.031 -1.631,0.031 h -1.631 c -0.53,0 -0.986,-0.012 -1.372,-0.031 -0.062,-0.447 -0.036,-0.895 0.076,-1.341 0.112,-0.448 0.3,-0.875 0.565,-1.281 0.262,-0.407 0.598,-0.773 1.005,-1.098 0.406,-0.325 0.884,-0.579 1.433,-0.763 0.203,-0.081 0.457,-0.152 0.763,-0.213 0.305,-0.061 0.615,-0.102 0.93,-0.122 0.315,-0.02 0.604,-0.01 0.868,0.031 0.265,0.04 0.468,0.112 0.611,0.214 0.182,0.121 0.376,0.223 0.579,0.303 0.203,0.082 0.366,0.184 0.488,0.305 0.041,0.041 0.061,0.087 0.061,0.138 0,0.051 0.01,0.107 0.031,0.167 l 0.029,-0.031 c 0.122,0.224 0.291,0.362 0.504,0.413 0.214,0.05 0.406,0.045 0.58,-0.016 0.172,-0.06 0.299,-0.178 0.381,-0.351 0.081,-0.172 0.07,-0.381 -0.031,-0.625 -0.407,-0.894 -0.965,-1.59 -1.677,-2.088 -0.712,-0.499 -1.495,-0.808 -2.348,-0.93 -0.854,-0.122 -1.734,-0.076 -2.638,0.137 -0.905,0.214 -1.754,0.579 -2.546,1.098 -0.793,0.519 -1.489,1.174 -2.088,1.967 -0.601,0.792 -1.007,1.697 -1.22,2.713 -0.214,1.017 -0.203,2.139 0.029,3.37 0.235,1.23 0.789,2.546 1.663,3.948 0.345,0.55 0.869,0.997 1.57,1.343 0.702,0.345 1.474,0.573 2.318,0.686 C -0.849,2.781 0.02,2.76 0.914,2.608 1.809,2.456 2.628,2.17 3.37,1.754 4.112,1.336 4.716,0.768 5.184,0.046 c 0.468,-0.722 0.71,-1.6 0.732,-2.638 0,-0.711 -0.011,-1.254 -0.031,-1.63 C 5.865,-4.599 5.748,-4.874 5.535,-5.046 5.321,-5.218 4.97,-5.315 4.483,-5.335 c -0.488,-0.021 -1.19,-0.021 -2.105,0" />
      </g>
      <g
         transform="matrix(0.35277777,0,0,-0.35277777,113.40763,103.51917)"
         id="g4806">
        <path
           inkscape:connector-curvature="0"
           id="path4808"
           style="fill:#ffffff;fill-opacity:1;fill-rule:nonzero;stroke:none"
           d="m 0,0 c 0.268,-0.144 0.522,-0.17 0.764,-0.08 0.24,0.089 0.453,0.232 0.641,0.428 0.188,0.196 0.357,0.428 0.509,0.696 0.151,0.267 0.272,0.5 0.362,0.695 0.142,0.303 0.183,0.576 0.12,0.818 C 2.333,2.797 2.124,2.972 1.767,3.079 1.499,3.167 1.173,3.266 0.79,3.372 0.406,3.479 0.049,3.506 -0.281,3.453 -0.611,3.4 -0.87,3.23 -1.057,2.944 -1.245,2.659 -1.275,2.185 -1.151,1.525 -1.062,1.186 -0.907,0.865 -0.683,0.562 -0.46,0.258 -0.232,0.071 0,0 M -0.268,-3.935 C -0.838,-4.774 -1.2,-5.509 -1.352,-6.144 -1.503,-6.777 -1.521,-7.3 -1.405,-7.709 c 0.116,-0.411 0.339,-0.71 0.669,-0.897 0.33,-0.187 0.683,-0.237 1.057,-0.147 0.161,0.035 0.424,0.295 0.79,0.776 0.366,0.482 0.852,1.071 1.459,1.767 z M 9.797,-10.52 c -0.179,-0.464 -0.397,-0.746 -0.655,-0.843 -0.26,-0.098 -0.545,-0.084 -0.858,0.04 -0.311,0.126 -0.641,0.335 -0.989,0.63 -0.348,0.294 -0.697,0.601 -1.044,0.922 C 5.902,-9.449 5.564,-9.145 5.234,-8.86 4.902,-8.575 4.595,-8.37 4.31,-8.245 3.952,-8.709 3.569,-9.154 3.159,-9.583 c -0.411,-0.428 -0.848,-0.829 -1.311,-1.205 -0.215,-0.178 -0.483,-0.326 -0.803,-0.441 -0.322,-0.115 -0.653,-0.192 -0.991,-0.227 -0.339,-0.037 -0.682,-0.031 -1.031,0.012 -0.347,0.045 -0.655,0.139 -0.923,0.281 -0.875,0.464 -1.509,1.076 -1.901,1.834 -0.392,0.759 -0.575,1.567 -0.549,2.423 0.027,0.856 0.259,1.718 0.696,2.583 0.438,0.866 1.049,1.637 1.834,2.315 -0.5,0.678 -0.919,1.361 -1.258,2.047 -0.34,0.687 -0.513,1.348 -0.522,1.981 -0.009,0.634 0.201,1.227 0.629,1.781 0.428,0.552 1.151,1.025 2.169,1.418 0.498,0.196 0.954,0.312 1.364,0.348 C 0.973,5.603 1.369,5.576 1.754,5.487 2.137,5.398 2.52,5.242 2.905,5.019 3.289,4.796 3.712,4.524 4.176,4.203 4.282,4.096 4.372,3.979 4.444,3.855 4.515,3.73 4.568,3.604 4.604,3.479 4.853,2.981 4.881,2.463 4.684,1.927 4.488,1.392 4.189,0.869 3.788,0.361 3.386,-0.148 2.94,-0.625 2.449,-1.071 1.959,-1.517 1.535,-1.892 1.178,-2.196 1.428,-2.463 1.664,-2.704 1.888,-2.917 2.11,-3.132 2.333,-3.337 2.557,-3.533 2.78,-3.73 3.002,-3.93 3.225,-4.136 c 0.223,-0.205 0.47,-0.441 0.736,-0.71 0.875,0.858 1.651,1.62 2.329,2.289 0.679,0.67 1.401,1.317 2.168,1.941 0.09,0.108 0.192,0.151 0.309,0.134 C 8.882,-0.5 8.98,-0.549 9.061,-0.629 9.142,-0.71 9.19,-0.826 9.208,-0.977 9.226,-1.129 9.172,-1.285 9.048,-1.445 L 7.656,-3.533 C 7.299,-3.998 6.956,-4.466 6.625,-4.939 6.294,-5.412 5.97,-5.88 5.649,-6.344 c 0.177,-0.447 0.476,-0.821 0.896,-1.124 0.42,-0.305 0.852,-0.598 1.298,-0.883 0.446,-0.286 0.86,-0.594 1.246,-0.924 0.383,-0.33 0.619,-0.745 0.708,-1.245" />
      </g>
    </g>
  </g>
</svg>
